<?xml version="1.0" encoding="utf-8"?>
<!-- Generator: Adobe Illustrator 22.0.0, SVG Export Plug-In . SVG Version: 6.00 Build 0)  -->
<svg version="1.1" id="Camada_1" xmlns="http://www.w3.org/2000/svg" xmlns:xlink="http://www.w3.org/1999/xlink" x="0px" y="0px"
	 viewBox="0 0 1140 720" style="enable-background:new 0 0 1140 720;" xml:space="preserve">
<style type="text/css">
	.st0{fill:#F9B61E;}
	.st1{fill:none;stroke:#000000;stroke-width:2;stroke-miterlimit:10;}
</style>
<path class="st0" d="M804.1,253.6c-5.2-4.8-12.7-6.6-19.6-6.7c-3.5,0-6.2,0.8-8.1,2.4c-6.5,0.7-12.7,2.6-17.2,8.1
	c-5.1,6.3-7.3,15-7.3,23c0.1,18.9,12.3,31.4,27,41.5c4.1,2.9,8.6,6.2,13.4,8.1c3.8,1.6,7.5-0.7,9.2-4.3c1.8-3.9,0.6-7.5-0.8-11.3
	c0.3-1,0.6-2,0.8-3c0.5-3.5-0.2-6.9-0.6-10.3c0.8-2.8,1.3-5.7,2.4-8.4c1.7-4,3.3-7.8,3.9-12c1-1.9,1.7-4,2.1-5.8
	C811.2,267.2,810.1,259,804.1,253.6z"/>
<path class="st0" d="M889.4,288.7c0.3-5.2-3.8-9.9-8.9-10.1c-9-6.5-21.9-6.9-32.4-2.3c-7.7,3.4-14.2,9.1-19.6,15.4
	c-3,3.5-5.6,7.2-8.2,10.9c-2.7,3.8-5.1,7.2-5.4,12c0,0.3,0,0.4,0,0.6c-2.1,3.1,0,8.4,4.1,7.7c1.4,2.5,4.8,3.8,7.5,1.2
	c0.4-0.4,0.8-0.9,1-1.4c1.7-1.4,7.2-0.1,8.7,0.1c3.9,0.4,7.8,1,11.6,1.8c5.3,1,10.6,2.4,15.8,4c0.3,1,1,2,2.1,2.5
	c13.7,7.2,27-4.5,29.3-18C896.6,304.5,894.4,295.7,889.4,288.7z M876.4,323.8c-0.2-0.3-0.4-0.5-0.7-0.8c2-0.3,3.9-1.1,5.7-2.9
	c2-2,2.9-4.6,3-7.3c0.5-0.7,1-1.6,1.5-2.4C885,315.9,881.6,322.6,876.4,323.8z"/>
<path class="st0" d="M870.9,383.1c-0.4-7.8-4.8-14.3-9.9-19.9c-5.6-5.9-11.9-11.3-18.2-16.2c-3.1-2.5-6.4-4.9-9.7-7.2
	c-3.1-2.2-5.8-4-9.4-1.9c-1.2,0.7-2.1,2.1-2.4,3.6c-1.9,0.4-3.5,1.9-3.1,4.5c1.6,12.6-1.2,23.5-5.5,35.2c-3.3,9.2-7.5,22.8,1,30.4
	c11.1,9.9,26.9,9.7,38.6,2.5c1.4,0.3,3,0,4.2-1.2c3.2-3.3,5.7-7,7.7-11.2C868.7,396.4,871.3,389.9,870.9,383.1z M856.3,395.2
	c0.4-1,0.7-2.2,0.9-3.4C857.3,393.1,857,394.2,856.3,395.2z M845,380.1c0,0.5,0.1,6.6-1,7.5c0.4-3.3,0-7.1-0.3-9.7
	c0-0.3-0.1-0.6-0.2-1c0.5,0.9,1,1.8,1.4,2.8C845,379.8,845,379.9,845,380.1z M831.9,404.6c-1.8,0-2.9-0.8-3.6-2.1
	C829.5,403.5,830.6,404.2,831.9,404.6z"/>
<path class="st0" d="M802.9,343c-0.6-0.4-1.1-0.7-1.7-1c-0.5-2.4-2.7-4.7-5.9-4c-5.2,1.1-10.6,2.4-16,2.4c-5.1,0-9.9-1.2-14.8-2.9
	c-8.1-2.8-18.3-8.1-27.1-5.6c-7.9,2.3-12.3,12.8-13.5,20.2c-1.5,8.7,0.5,17.8,5.8,25c10.6,14.5,30,17.3,45.6,9.1
	c8.3-4.4,14.1-11.9,19.3-19.5c2.7-4.1,5.4-8.2,8.1-12.2C805,350.8,807.4,346.2,802.9,343z M767.3,348.8c0.1-0.1,0.2-0.2,0.2-0.3
	c0.7,0.2,1.3,0.3,2,0.5C768.8,348.9,768,348.9,767.3,348.8z M788.1,357.9c0-0.2-0.1-0.3-0.1-0.5c0.5-0.1,1.1-0.3,1.7-0.3
	c-0.4,0.7-1,1.3-1.4,2C788.3,358.6,788.2,358.3,788.1,357.9z M767.3,379.2c0.1-0.2,0.2-0.3,0.3-0.4c0.8-0.3,1.7-0.4,2.4-0.7
	c-0.7,0.3-1.4,0.7-2.2,1C767.7,379.1,767.5,379.1,767.3,379.2z"/>
<path class="st0" d="M820.1,330.1c-0.3-0.9-0.5-1.7-1-2.6c-0.2-0.4-0.4-0.7-0.7-1c-1.9-4.8-7.9-5.8-12.1-3.1c-1.7,1-2.7,2.4-3.5,3.9
	c-2.2,0.4-4.1,2.3-4.1,4.7c0,3.8,0.9,7.5,4.1,9.9c2.5,1.8,5.8,2.4,8.9,1.6c2.4-0.6,4.1-1.9,5.3-3.7c1.4-0.5,2.4-1.7,3.1-3.2
	C821,334.5,820.9,332.2,820.1,330.1z"/>
<g>
	<g>
		<path d="M744.6,264.8c0-3.5,1-6.7,2.6-9.8c1.4-2.7,3.8-4.9,5.1-7.6c0.4-1-0.3-2.2-1.5-1.9c-7.3,2-11.1,12.7-11.2,19.4
			C739.7,268,744.6,268,744.6,264.8L744.6,264.8z"/>
	</g>
</g>
<g>
	<g>
		<path d="M733,263.3c1.2-6.8,3.8-12.1,7.2-18c0.7-1.1-0.6-2.2-1.7-1.7c-6,2.9-8.1,12.7-9.3,18.7C728.8,264.7,732.5,265.8,733,263.3
			L733,263.3z"/>
	</g>
</g>
<g>
	<g>
		<path d="M850.2,269.4c5.1-5.8,11.3-3.8,18.1-2.7c2.1,0.3,3.6-2.4,1.5-3.6c-7.2-4.2-17.1-3.4-22.6,3.1
			C845.3,268.5,848.3,271.5,850.2,269.4L850.2,269.4z"/>
	</g>
</g>
<g>
	<g>
		<path d="M850.6,259.5c3.6-1.9,9.3-4.5,12.9-1.5c1.7,1.4,3.9-0.8,2.4-2.4c-4.6-4.9-12.1-2.1-17.3,0.5
			C846.5,257.3,848.5,260.6,850.6,259.5L850.6,259.5z"/>
	</g>
</g>
<g>
	<g>
		<path d="M872.9,405.8c4.4-7.2,6.5-14.1,4.9-22.6c-0.2-1-1.7-1-2,0c-1.6,7.3-3.2,13.6-7.2,20.2C867,406,871.3,408.5,872.9,405.8
			L872.9,405.8z"/>
	</g>
</g>
<g>
	<g>
		<path d="M878.6,413.6c6.8-10.3,13.9-28.6,5.2-39.9c-0.8-1-2.6-0.5-2.3,1c1.4,6.6,2.3,12.6,0.9,19.3c-1.3,6.3-4,12.1-7.5,17.5
			C873.5,413.8,877.1,416,878.6,413.6L878.6,413.6z"/>
	</g>
</g>
<g>
	<g>
		<path d="M743.5,402.7c7.8,1.5,20.3,4.3,25.7-3.6c0.6-0.9-0.4-2.1-1.4-1.8c-3.8,1-7.1,2.6-11.1,2.6c-4.1,0-8.1-0.8-12-1.6
			C741.9,397.7,740.7,402.1,743.5,402.7L743.5,402.7z"/>
	</g>
</g>
<g>
	<g>
		<path d="M750.8,409.8c6.3,1.7,13.9-0.7,19.1-4.2c1.2-0.8,0.4-2.9-1-2.4c-2.8,0.9-5.5,1.9-8.3,2.7c-3.1,0.9-6.3,1-9.5,1.3
			C749.8,407.4,749.3,409.4,750.8,409.8L750.8,409.8z"/>
	</g>
</g>
<g>
	<g>
		<path d="M712.3,318.1c-6.6-1.7-13.9-1.6-20.7-1.9c-7.4-0.3-14.8-0.7-22.3-1.3c-14.9-1.2-30.2-3.1-44.4-7.9
			c-10.8-3.6-22.9-11.4-23.5-24.2c-0.3-5.5,2.4-11.1,6.3-14.9c4.5-4.4,9.9-5.5,15.9-4.7c1.5,0.2,2-2.2,0.8-2.7
			c-8.4-4-17.4,0.8-22.4,7.9c-5.7,7.9-5.9,17.6-1.1,26.1c5,8.7,14.3,13.8,23.7,16.8c12.9,4.2,26.7,6,40.2,7.2
			c8.2,0.8,16.5,1.2,24.7,1.6c7.6,0.3,15.5,1.1,23-0.1C713.2,319.9,713.1,318.4,712.3,318.1L712.3,318.1z"/>
	</g>
</g>
<g>
	<g>
		<path d="M600.6,308.2c-8.6-2.3-20.7,1.1-27.9,5.7c-8.6,5.3-11,14.4-5.8,23.2c0.9,1.5,3.6,0.5,2.9-1.2c-1.7-4.2-2.9-8.7-0.8-12.9
			c1.7-3.3,5.1-5.5,8.3-7.1c7.5-3.7,15.5-3.6,23.3-5.8C601.5,309.7,601.6,308.5,600.6,308.2L600.6,308.2z"/>
	</g>
</g>
<g>
	<g>
		<path d="M700,326.3c-8.8,0.6-17.5-1-26.1-2.6c-8.4-1.6-16.8-2.7-25.2-3.3c-9.7-0.7-19.3-1-29-1c-6.5-0.1-12.9-0.2-19.4,0.8
			c-11.1,1.7-21.2,7.7-23.7,19.4c-1.9,9.1,4,18.5,11,23.9c7.2,5.7,17.5,6.8,20.4-3.7c0.6-2-2.4-2.8-3.1-0.9
			c-3.6,9.5-13.1,4.4-18.2-1c-6.6-7-9.3-16.2-3.8-24.7c5.8-8.9,17.5-10,27.1-10.3c14.5-0.3,29.1,0.3,43.5,1.5
			c15.4,1.3,30.7,6.6,46.3,5.5C702.3,329.8,702.3,326.1,700,326.3L700,326.3z"/>
	</g>
</g>
<g>
	<g>
		<path d="M708,305.7c-18.9,0.7-37.4-1.7-55.9-4.8c-1.6-0.3-2.3,2-0.7,2.4c18.2,4.6,37.9,5.9,56.6,5.2
			C709.8,308.5,709.8,305.6,708,305.7L708,305.7z"/>
	</g>
</g>
<g>
	<g>
		<path d="M598.5,306.2c-11.8-1.4-23.6-3.6-34.9-7.2c-11.3-3.7-23.7-9.2-30.7-19.2c-4.7-6.8-6.5-15.7-0.4-22.2
			c4.8-5.1,12.2-7.5,19.1-7.4c7,0,14.4,3.1,13.3,11.3c-0.3,1.9,2.5,2.8,3,0.8c1.7-7.6-2.5-13.5-9.9-15.5c-7.9-2.2-17.2-0.3-24,4.1
			c-7.4,4.8-11.2,12.9-8.9,21.6c3.4,12.8,15.4,21.1,26.8,26.2c14.7,6.5,30.7,9.4,46.6,11.3C600.9,310.3,600.8,306.4,598.5,306.2
			L598.5,306.2z"/>
	</g>
</g>
<g>
	<g>
		<path d="M627.5,432.5c9.3,4.5,20.2,5,30.4,5.9c12.9,1.1,25.7,3.1,38.6,3.6c30.3,1.1,60.4,5.4,90.7,6.8c15,0.7,30.1,0.6,45.1,1
			c14.8,0.3,29.8,0.7,44.6-0.6c30.6-2.7,60.7-10.2,91.3-13.1c30.6-2.9,61.9-6.2,89.8-20.1c3-1.5,0.3-6-2.6-4.5
			c-25,12.5-53,16.1-80.4,18.8c-29.3,2.9-58.1,8.6-87.3,12.5c-14.8,2-29.7,2.4-44.7,2.1c-14.7-0.3-29.4-0.3-44.2-0.7
			c-29.6-0.7-58.8-5.1-88.2-6.7c-8.4-0.4-16.7-0.4-25-1.1c-6.7-0.5-13.4-1.7-20.2-2.3c-12-1-24.9-1.2-36.4-5.4
			C626.9,427.8,625.3,431.4,627.5,432.5L627.5,432.5z"/>
	</g>
</g>
<g>
	<g>
		<path d="M1053.4,412.9c-5.1,20.2-10.4,40.6-13.6,61.2c-2.4,15.1-3.8,31.6-12,44.9c-1.1,1.9,1.7,4.2,3.1,2.4
			c4.5-5.2,6.5-12.5,8.2-19c2.1-8.4,3.4-16.9,4.8-25.5c3.4-21.1,8.6-42.1,13.9-62.8C1058.7,411.3,1054.2,410.1,1053.4,412.9
			L1053.4,412.9z"/>
	</g>
</g>
<g>
	<g>
		<path d="M790.3,371.8c-1.9,12.6-4.3,25-6.5,37.5c-2.1,11.9-4.8,24-5.7,36c-0.2,2.3,3.6,2.8,4,0.5c2.3-12,3.8-24.3,5.8-36.3
			c2.2-12.2,4.4-24.4,6.3-36.7C794.7,370.2,790.7,369.1,790.3,371.8L790.3,371.8z"/>
	</g>
</g>
<g>
	<g>
		<path d="M843.9,419.7c-0.2,9.3,2.6,18.3,3,27.6c0.1,2.8,4.4,2.8,4.3,0c-0.1-9.3-3.1-18.2-2.9-27.6
			C848.2,416.9,843.9,416.9,843.9,419.7L843.9,419.7z"/>
	</g>
</g>
<g>
	<g>
		<path d="M627.4,431.9c1.8,4,5.5,7.3,7.9,11.2c2.6,4.2,5.3,8.2,8.6,11.9c7.5,8.6,15.3,17,23,25.5c7.7,8.6,15.8,16.9,24.8,24.2
			c8.6,6.9,18,12.7,25.8,20.4c1.7,1.7,4.1-0.8,2.6-2.6c-7.2-8.4-16.8-14.1-25.2-21c-9.2-7.5-17.5-16-25.4-24.7
			c-7.5-8.3-15.2-16.4-22.5-24.8c-3.6-4.1-6.5-8.6-9.5-13c-2.1-3.1-4.8-7.8-8.8-8.5C627.7,430.2,627.1,431,627.4,431.9L627.4,431.9z
			"/>
	</g>
</g>
<g>
	<g>
		<path d="M1031.3,366.6C1031.3,366.6,1031.3,366.5,1031.3,366.6C1031.3,366.5,1031.3,366.6,1031.3,366.6L1031.3,366.6z"/>
	</g>
</g>
<g>
	<g>
		<path d="M85.6,437.5c9.3,4.5,20.2,5,30.4,5.9c12.9,1.1,25.7,3.1,38.6,3.6c30.3,1.1,60.4,5.4,90.7,6.8c15,0.7,30.1,0.6,45.1,1
			c14.8,0.3,29.8,0.7,44.6-0.6c30.6-2.7,60.7-10.2,91.3-13.1s61.9-6.2,89.8-20.1c3-1.5,0.3-6-2.6-4.5c-25,12.5-53,16.1-80.4,18.8
			c-29.3,2.9-58.1,8.6-87.3,12.5c-14.8,2-29.7,2.4-44.7,2.1c-14.7-0.3-29.4-0.3-44.2-0.7c-29.6-0.7-58.8-5.1-88.2-6.7
			c-8.4-0.4-16.7-0.4-25-1.1c-6.7-0.5-13.4-1.7-20.2-2.3c-12-1-24.9-1.2-36.4-5.4C84.9,432.9,83.4,436.6,85.6,437.5L85.6,437.5z"/>
	</g>
</g>
<g>
	<g>
		<path d="M511.5,418.1c-5.1,20.2-10.4,40.6-13.6,61.2c-2.4,15.1-3.8,31.6-12,44.9c-1.1,1.9,1.7,4.2,3.1,2.4
			c4.5-5.2,6.5-12.5,8.2-19c2.1-8.4,3.4-16.9,4.8-25.5c3.4-21.1,8.6-42.1,13.9-62.8C516.6,416.4,512.2,415.2,511.5,418.1
			L511.5,418.1z"/>
	</g>
</g>
<g>
	<g>
		<path d="M293.7,197.3c0,65.5,0,130.9,0.1,196.3c0,18.7-0.7,37.5,0.2,56.1c0.1,2.3,3.3,2.3,3.5,0c0.8-16.3,0.2-32.9,0.2-49.3
			c0-16.3,0-32.6,0.1-48.9c0-32.7,0-65.5,0-98.3c0-18.7,0-37.4,0-56C297.6,194.7,293.7,194.7,293.7,197.3L293.7,197.3z"/>
	</g>
</g>
<g>
	<g>
		<path d="M293.7,197.8c-2.4,15.6-1.7,31.3-3,47c-1.3,16.9-3.8,33.7-5.2,50.6c-2.9,33.6-4.1,67.3-5.3,101
			c-0.7,18.9-0.3,38.1-3.1,56.9c-0.4,2.8,3.9,4,4.3,1.2c2.3-15.9,2.4-31.9,2.8-47.8c0.5-16.9,1.2-33.9,2-50.9
			c1.6-33.7,4.6-67.1,8.2-100.7c2-18.6,1-37.4,3.9-55.9C298.9,196,294.1,194.6,293.7,197.8L293.7,197.8z"/>
	</g>
</g>
<g>
	<g>
		<path d="M217.1,447.4c-6.5-10.9-3.8-25-4.1-37.2c-0.4-16-0.1-31.1,4.5-46.5c8-27.7,22-54.6,41.6-75.8c6.2-6.7,12-13.7,18.2-20.6
			c5.4-6.1,12-10.9,16.8-17.5c2.1-2.8-2.5-5.4-4.6-2.7c-4.8,6.3-11.4,10.8-16.6,16.8c-5.7,6.6-11.3,13.2-17.1,19.5
			c-10,10.9-18.5,23.1-25.6,36.1c-7.1,12.9-12.8,26.5-17.1,40.7c-4.6,15.4-5.8,30.8-5.2,46.9c0.5,14-2.7,30.2,4.7,42.9
			C214.2,453.1,218.8,450.4,217.1,447.4L217.1,447.4z"/>
	</g>
</g>
<g>
	<g>
		<path d="M198,445c-12.9-8.3-18.4-26.2-23-40c-3.1-9.3-5.5-18.3-5.8-28.1c-0.3-11.2,1.5-22.3,4.2-33.1c8.9-35,33-66.7,64.6-84.2
			c9.7-5.4,20.3-9.8,31.2-12.5c3.6-0.9,7.1-1.8,10.6-2.6c3.3-0.7,7.9-2,11.2-0.6c3.2,1.3,4.7-3.9,1.5-5.2
			c-6.1-2.4-14.8,0.8-20.9,2.3c-9.9,2.5-19.4,5.8-28.6,10.1c-17.5,8.1-33,20.8-45.5,35.6c-26.4,31.3-41.5,76.2-28.6,116.2
			c5.2,16.2,11.3,36.7,26.4,46.8C198.1,451.5,200.9,446.9,198,445L198,445z"/>
	</g>
</g>
<g>
	<g>
		<path d="M468.4,387.8c0.1,14.4,0.7,29,3,43.3c0.3,2.2,3.7,1.2,3.3-1c-2.2-14-2.7-28.2-2.9-42.3
			C471.9,385.6,468.4,385.6,468.4,387.8L468.4,387.8z"/>
	</g>
</g>
<g>
	<g>
		<path d="M348.6,450.2c1.7-21.2,2.9-42.5,2.9-63.9c0-2.3-3.5-2.3-3.5,0c0,21.3-1.1,42.6-2.9,63.9
			C344.9,452.5,348.4,452.5,348.6,450.2L348.6,450.2z"/>
	</g>
</g>
<g>
	<g>
		<path d="M349,387.3c41.1-0.3,82.2,0.7,123.3,0.7c2.3,0,2.3-3.5,0-3.5c-41.1,0-82.2-1-123.3-0.7C346.8,383.9,346.8,387.3,349,387.3
			L349,387.3z"/>
	</g>
</g>
<g>
	<g>
		<path d="M363.3,402.4c0,13.3,0,26.6,0,39.9c0,2.3,3.5,2.3,3.5,0c0-13.3,0-26.6,0-39.9C366.7,400.1,363.3,400.1,363.3,402.4
			L363.3,402.4z"/>
	</g>
</g>
<g>
	<g>
		<path d="M364,442.2c0,1.5,0,2.9,0,4.4c0,2.3,3.5,2.3,3.5,0c0-1.5,0-2.9,0-4.4C367.4,440,364,440,364,442.2L364,442.2z"/>
	</g>
</g>
<g>
	<g>
		<path d="M419.8,402.4c0,6.5-0.3,13.1,0,19.6c0.3,5.3,0.4,11.3,3.1,16.1c1.1,1.9,4.1,0.2,3-1.7c-2.7-4.8-2.6-11.3-2.7-16.7
			c-0.2-5.8,0.1-11.5,0.1-17.3C423.3,400.1,419.8,400.1,419.8,402.4L419.8,402.4z"/>
	</g>
</g>
<g>
	<g>
		<path d="M365,404c10,0,20.2,0.4,30.1-0.1c8.3-0.4,17.1-2.3,25.3,0.1c2.2,0.6,3.1-2.7,1-3.3c-8-2.3-16.7-0.8-25-0.3
			c-10.4,0.7-20.9,0.2-31.4,0.2C362.7,400.6,362.7,404,365,404L365,404z"/>
	</g>
</g>
<g>
	<g>
		<path d="M903.8,390c0,17.9-0.7,35.8-0.7,53.7c0,2.3,3.5,2.3,3.5,0c0-17.9,0.7-35.8,0.7-53.7C907.2,387.8,903.8,387.8,903.8,390
			L903.8,390z"/>
	</g>
</g>
<g>
	<g>
		<path d="M904.8,391.7c32.5,0,64.8-2.9,97.2-2.9c2.3,0,2.3-3.5,0-3.5c-32.5,0.1-64.8,2.9-97.2,2.9
			C902.6,388.2,902.6,391.7,904.8,391.7L904.8,391.7z"/>
	</g>
</g>
<g>
	<g>
		<path d="M1001.1,387.1c-0.1,12.5-1.7,25.2,1.5,37.4c0.6,2.2,3.9,1.2,3.3-1c-3.2-11.9-1.5-24.4-1.4-36.6
			C1004.5,384.8,1001.1,384.8,1001.1,387.1L1001.1,387.1z"/>
	</g>
</g>
<g>
	<g>
		<path d="M1002.5,424.8c0,1,0.4,2,1.2,2.7c0.7,0.5,1.7,0.7,2.4,0c0.6-0.6,0.8-1.8,0-2.4l-0.3-0.3c0,0,0.3,0.3,0,0
			c0-0.1,0-0.1,0,0.1c0.1,0.2,0.1,0.2,0,0v-0.1c0,0.3,0,0.3,0,0.1c0-0.9-0.8-1.7-1.7-1.7C1003.2,423.1,1002.5,423.8,1002.5,424.8
			L1002.5,424.8z"/>
	</g>
</g>
<g>
	<g>
		<path d="M1003.2,425.6c0,1,0,1.9,0,2.9c0,0.9,0.8,1.7,1.7,1.7c1,0,1.7-0.8,1.7-1.7s0-1.9,0-2.9c0-0.9-0.8-1.7-1.7-1.7
			C1004,423.8,1003.2,424.5,1003.2,425.6L1003.2,425.6z"/>
	</g>
</g>
<g>
	<g>
		<path d="M355.1,521.8L355.1,521.8L355.1,521.8L355.1,521.8z"/>
	</g>
</g>
<g>
	<g>
		<path d="M400,508.8c4.6,12.1,15.9,19.4,28.7,20.2c11.8,0.8,25.4-4.5,30.2-16c0.6-1.6-1.8-3.1-2.9-1.7c-6.8,8.6-15.6,13.6-26.8,13
			c-11.1-0.5-20.9-7-25.3-17.2C402.9,505.1,399.1,506.6,400,508.8L400,508.8z"/>
	</g>
</g>
<g>
	<g>
		<path d="M398.7,507.2c-4.5,10.2-14.2,16.7-25.3,17.2c-11.2,0.6-20-4.5-26.8-13c-1-1.3-3.6,0.1-2.9,1.7c4.7,11.5,18.4,16.8,30.2,16
			c12.7-0.9,24-8.1,28.7-20.2C403.4,506.7,399.7,505,398.7,507.2L398.7,507.2z"/>
	</g>
</g>
<g>
	<g>
		<path d="M288.2,508.8c4.6,12.1,15.9,19.4,28.7,20.2c11.8,0.8,25.4-4.5,30.2-16c0.6-1.6-1.8-3.1-2.9-1.7
			c-6.8,8.6-15.6,13.6-26.8,13c-11.1-0.5-20.9-7-25.3-17.2C291.1,505.1,287.4,506.6,288.2,508.8L288.2,508.8z"/>
	</g>
</g>
<g>
	<g>
		<path d="M287,507.2c-4.5,10.2-14.2,16.7-25.3,17.2c-11.2,0.6-20-4.5-26.8-13c-1-1.3-3.6,0.1-2.9,1.7c4.7,11.5,18.4,16.8,30.2,16
			c12.7-0.9,24-8.1,28.7-20.2C291.6,506.7,287.9,505,287,507.2L287,507.2z"/>
	</g>
</g>
<g>
	<g>
		<path d="M132.3,521.8L132.3,521.8C132.2,521.8,132.2,521.8,132.3,521.8L132.3,521.8z"/>
	</g>
</g>
<g>
	<g>
		<path d="M177.2,508.8c4.6,12.1,15.9,19.4,28.7,20.2c11.8,0.8,25.4-4.5,30.2-16c0.6-1.6-1.8-3.1-2.9-1.7
			c-6.8,8.6-15.6,13.6-26.8,13c-11.1-0.5-20.9-7-25.3-17.2C180.1,505.1,176.4,506.6,177.2,508.8L177.2,508.8z"/>
	</g>
</g>
<g>
	<g>
		<path d="M176,507.2c-4.5,10.2-14.2,16.7-25.3,17.2c-11.2,0.6-20-4.5-26.8-13c-1-1.3-3.6,0.1-2.9,1.7c4.7,11.5,18.4,16.8,30.2,16
			c12.7-0.9,24-8.1,28.7-20.2C180.6,506.7,176.9,505,176,507.2L176,507.2z"/>
	</g>
</g>
<g>
	<g>
		<path d="M65.5,508.8c4.6,12.1,15.9,19.4,28.7,20.2c11.8,0.8,25.4-4.5,30.2-16c0.6-1.6-1.8-3.1-2.9-1.7c-6.8,8.6-15.6,13.6-26.8,13
			c-11.1-0.5-20.9-7-25.3-17.2C68.4,505.1,64.6,506.6,65.5,508.8L65.5,508.8z"/>
	</g>
</g>
<g>
	<g>
		<path d="M64.3,507.2c-4.5,10.2-14.2,16.7-25.3,17.2c-11.2,0.6-20-4.5-26.8-13c-1-1.3-3.6,0.1-2.9,1.7
			c4.7,11.5,18.3,16.8,30.1,16.1c12.7-0.9,24-8.1,28.7-20.2C68.9,506.7,65.2,505,64.3,507.2L64.3,507.2z"/>
	</g>
</g>
<g>
	<g>
		<path d="M578.6,521.8L578.6,521.8C578.5,521.8,578.5,521.8,578.6,521.8L578.6,521.8z"/>
	</g>
</g>
<g>
	<g>
		<path d="M623.4,508.8c4.6,12.1,15.9,19.4,28.7,20.2c11.8,0.8,25.4-4.5,30.2-16c0.6-1.6-1.8-3.1-2.9-1.7
			c-6.8,8.6-15.6,13.6-26.8,13c-11.1-0.5-20.9-7-25.3-17.2C626.3,505.1,622.6,506.6,623.4,508.8L623.4,508.8z"/>
	</g>
</g>
<g>
	<g>
		<path d="M622.2,507.2c-4.5,10.2-14.2,16.7-25.3,17.2c-11.2,0.6-20-4.5-26.8-13c-1-1.3-3.6,0.1-2.9,1.7c4.7,11.5,18.4,16.8,30.2,16
			c12.7-0.9,24-8.1,28.7-20.2C626.8,506.7,623.2,505,622.2,507.2L622.2,507.2z"/>
	</g>
</g>
<g>
	<g>
		<path d="M511.7,508.8c4.6,12.1,15.9,19.4,28.7,20.2c11.8,0.8,25.4-4.5,30.2-16c0.6-1.6-1.8-3.1-2.9-1.7
			c-6.8,8.6-15.6,13.6-26.8,13c-11.1-0.5-20.9-7-25.3-17.2C514.6,505.1,510.8,506.6,511.7,508.8L511.7,508.8z"/>
	</g>
</g>
<g>
	<g>
		<path d="M510.5,507.2c-4.5,10.2-14.2,16.7-25.3,17.2c-11.2,0.6-20-4.5-26.8-13c-1-1.3-3.6,0.1-2.9,1.7c4.7,11.5,18.4,16.8,30.2,16
			c12.7-0.9,24-8.1,28.7-20.2C515.1,506.7,511.5,505,510.5,507.2L510.5,507.2z"/>
	</g>
</g>
<g>
	<g>
		<path d="M1027,520.4L1027,520.4C1026.9,520.4,1026.9,520.4,1027,520.4L1027,520.4z"/>
	</g>
</g>
<g>
	<g>
		<path d="M1071.8,507.3c4.6,12.1,15.9,19.4,28.7,20.2c11.8,0.8,25.4-4.5,30.2-16c0.6-1.6-1.8-3.1-2.9-1.7
			c-6.8,8.6-15.6,13.6-26.8,13c-11.1-0.5-20.9-7-25.3-17.2C1074.7,503.6,1071,505.2,1071.8,507.3L1071.8,507.3z"/>
	</g>
</g>
<g>
	<g>
		<path d="M1070.6,505.8c-4.5,10.2-14.2,16.7-25.3,17.2c-11.2,0.6-20-4.5-26.8-13c-1-1.3-3.6,0.1-2.9,1.7
			c4.7,11.5,18.4,16.8,30.2,16c12.7-0.9,24-8.1,28.7-20.2C1075.2,505.2,1071.6,503.6,1070.6,505.8L1070.6,505.8z"/>
	</g>
</g>
<g>
	<g>
		<path d="M960.1,507.3c4.6,12.1,15.9,19.4,28.7,20.2c11.8,0.8,25.4-4.5,30.2-16c0.6-1.6-1.8-3.1-2.9-1.7
			c-6.8,8.6-15.6,13.6-26.8,13c-11.1-0.5-20.9-7-25.3-17.2C963,503.6,959.3,505.2,960.1,507.3L960.1,507.3z"/>
	</g>
</g>
<g>
	<g>
		<path d="M958.9,505.8c-4.5,10.2-14.2,16.7-25.3,17.2c-11.2,0.6-20-4.5-26.8-13c-1-1.3-3.6,0.1-2.9,1.7c4.7,11.5,18.4,16.8,30.2,16
			c12.7-0.9,24-8.1,28.7-20.2C963.5,505.2,959.8,503.6,958.9,505.8L958.9,505.8z"/>
	</g>
</g>
<g>
	<g>
		<path d="M804.2,520.4C804.3,520.4,804.3,520.4,804.2,520.4L804.2,520.4L804.2,520.4z"/>
	</g>
</g>
<g>
	<g>
		<path d="M849.1,507.3c4.6,12.1,15.9,19.4,28.7,20.2c11.8,0.8,25.4-4.5,30.2-16c0.6-1.6-1.8-3.1-2.9-1.7
			c-6.8,8.6-15.6,13.6-26.8,13c-11.1-0.5-20.9-7-25.3-17.2C852,503.6,848.2,505.2,849.1,507.3L849.1,507.3z"/>
	</g>
</g>
<g>
	<g>
		<path d="M847.9,505.8c-4.5,10.2-14.2,16.7-25.3,17.2c-11.2,0.6-20-4.5-26.8-13c-1-1.3-3.6,0.1-2.9,1.7c4.7,11.5,18.4,16.8,30.2,16
			c12.7-0.9,24-8.1,28.7-20.2C852.5,505.2,848.8,503.6,847.9,505.8L847.9,505.8z"/>
	</g>
</g>
<g>
	<g>
		<path d="M737.4,507.3c4.6,12.1,15.9,19.4,28.7,20.2c11.8,0.8,25.4-4.5,30.2-16c0.6-1.6-1.8-3.1-2.9-1.7
			c-6.8,8.6-15.6,13.6-26.8,13c-11.1-0.5-20.9-7-25.3-17.2C740.2,503.6,736.5,505.2,737.4,507.3L737.4,507.3z"/>
	</g>
</g>
<g>
	<g>
		<path d="M736.1,505.8c-4.5,10.2-14.2,16.7-25.3,17.2c-11.2,0.6-20-4.5-26.8-13c-1-1.3-3.6,0.1-2.9,1.7c4.7,11.5,18.4,16.8,30.2,16
			c12.7-0.9,24-8.1,28.7-20.2C740.8,505.2,737.1,503.6,736.1,505.8L736.1,505.8z"/>
	</g>
</g>
<g>
	<g>
		<path d="M85.1,434c3.6,7.9,9.7,14.7,15.4,20.9c6.8,7.4,14.1,14.4,20.8,21.8c6.8,7.5,12.8,15.7,19.7,23.1
			c7,7.7,15.4,16.6,25.3,20.3c2,0.8,3.1-2.3,1.4-3.3c-9.2-6.3-17.1-12.9-24.5-21.2c-6.5-7.3-12.4-15.3-19-22.5
			c-6.4-6.9-13.2-13.5-19.6-20.4c-5.8-6.3-12-13-15.6-20.9C87.8,429.1,84,431.3,85.1,434L85.1,434z"/>
	</g>
</g>
<g>
	<g>
		<g>
			<path d="M800.2,333.2c0.3-4.4,2.6-7.5,6.5-9.3c0.9-0.4,1-1.6,0.6-2.4c-5.7-10.7-3.1-23.7,0.6-34.6c2.5-7.1,6.3-13.7,5.7-21.5
				c-1-11.1-10.3-18.2-20.6-20.2c-11.1-2.3-23.6,0.2-32.5,7.2c-12.1,9.7-14.1,27.5-8.8,41.5c7.6,19.7,27.5,32.3,45.7,40.9
				c2,1,3.8-2.1,1.7-3.1c-15.7-7.4-32.1-17.4-41.2-32.7c-7.6-12.9-8.6-31.9,3.2-42.8c13.3-12.1,49.9-12.9,48.8,11.9
				c-0.3,8.8-5.8,16.9-7.9,25.4c-2.4,9.9-2.9,20.4,2,29.7c0.2-0.8,0.4-1.6,0.6-2.4c-5.1,2.4-7.9,6.8-8.3,12.4
				C796.7,335.4,800.2,335.4,800.2,333.2z"/>
		</g>
	</g>
	<g>
		<g>
			<path d="M798,334.7c-10.7,5.5-23.6,3-34.5-0.8c-7-2.4-13.4-6.2-21.1-5.7c-11,0.8-18.2,9.8-20.4,20c-2.4,11.1-0.2,23.7,6.9,32.7
				c9.3,11.9,26.2,14.4,40,9.8c20.1-6.7,33-26.5,41.8-44.6c0.4-0.9,0.2-2.4-1-2.5c-4.5-0.8-7.7-3.4-9-7.8c-0.6-2.2-4-1.2-3.4,1
				c1.7,5.5,5.8,9.3,11.4,10.2c-0.3-0.9-0.7-1.7-1-2.5c-7.7,15.7-18,32.2-33.9,40.5c-13,6.8-31.4,6.7-41.5-5.1
				c-11.6-13.7-11.5-49.8,13.4-47.9c8.5,0.6,16.3,5.8,24.5,7.8c9.8,2.4,20.3,2.9,29.6-1.8C801.7,336.7,800,333.8,798,334.7z"/>
		</g>
	</g>
	<g>
		<g>
			<path d="M874.9,272.1c-32.8-7.2-54.5,22.3-66.8,48.4c-0.5,1.1,0.1,2.7,1.5,2.6c4.2-0.2,7.6,1.8,9.8,5.4c0.5,0.9,1.6,1,2.4,0.6
				c14.7-7.9,30.5-0.4,44.7,4.5c7.4,2.6,15.9,2.6,22.3-2.4c12.2-9.4,12.5-28.9,6.5-41.8C891.5,281,884.3,274.5,874.9,272.1
				c-2.2-0.5-3.1,2.8-1,3.4c16,4,23.5,21.2,21.3,36.6c-1,6.7-3.9,13.8-9.9,17.5c-7.5,4.6-15.7,1.7-23.1-1.3c-13-5.3-29.1-9-42.2-2
				c0.8,0.2,1.6,0.4,2.4,0.6c-2.7-4.5-7.3-7.4-12.7-7.2c0.5,0.9,1,1.7,1.5,2.6c11.4-24.5,31.7-53.7,62.8-46.9
				C876.3,276,877.2,272.6,874.9,272.1z"/>
		</g>
	</g>
	<g>
		<g>
			<path d="M820.7,333.8c-0.3,4.2-2.7,7.5-6.6,9.2c-1,0.4-1.6,1.5-1,2.5c5.5,10.7,3,23.6-0.8,34.4c-2.4,7.1-6.3,13.7-5.6,21.5
				c0.9,10.8,9.9,17.9,20,20.1c11.3,2.5,24,0.1,33.1-7.2c11.9-9.5,14.1-26.7,9.2-40.5c-7.2-20-27.1-32.7-45.5-41.5
				c-2-1-3.8,2-1.7,3.1c15.5,7.4,31.9,17.4,40.7,32.7c7.4,12.8,8.2,31.7-3.5,42.3c-13.3,12.1-49.9,12.9-48.8-11.9
				c0.3-8.7,5.8-16.8,7.9-25.3c2.4-9.8,2.9-20.3-1.8-29.5c-0.3,0.9-0.7,1.7-1,2.5c5.4-2.3,8.7-6.6,9.3-12.5
				C824.4,331.6,820.9,331.7,820.7,333.8z"/>
		</g>
	</g>
</g>
<circle class="st1" cx="810.6" cy="333.5" r="11.2"/>
</svg>
